{
    "Comment": "Results folder, watch folder, max threads to use, steps needed for double gaussian, ratetables to analyse",
    "automation_folder": "Automation/",
    "central_default": "/brildata/vdmdata18/",
    "log_folder": "Automation/",
    "lxplusconfig": {
        "automation_folder": "Fill6016Final/",
        "central_default": "/eos/cms/store/group/dpg_bril/comm_bril/vdmdata2017/",
        "log_folder": "vdmlogs/"
    },
    "max_threads": 10,
    "dg_steps": 50,
    "ratetables": [
	"pltlumizero",
        "hfetlumi",
        "hfoclumi",
        "bcm1fsilumi",
	"bcm1fpcvdlumi",
	"pcclumi"
    ],
    "exampleratetables": [
        "pltlumizero",
        "hfetlumi",
        "hfoclumi",
        "bcm1fsilumi",
        "bcm1fpcvdlumi",
        "bcm1fscvdlumi",
	"bcm1futca_pcvdlumi_100",
	"bcm1futca_pcvdlumi_101",
	"bcm1futca_silumi_100",
	"bcm1futca_silumi_101",
	"pcclumi",
	"vtxlumi",
	"ramseslumi",
	"ramses5514lumi",
        "ramses5515lumi"
    ]
}
