{
	"Fill": "6016",
	"Date": "Jul282017",
	"Luminometer": "PCC",
	"AnalysisDir": "Fill6016_Jul282017",
	"Corr" : ["BeamBeam"],
	"Comment": "Output of following step goes to <AnalysisDir>/cond", 
	"makeScanFile": false,
	"Comment": "Output of following step goes to <AnalysisDir>/LuminometerData",
	"makeRateFile": false,
	"Comment": "Output of following step goes to <AnalysisDir>/cond", 
	"makeBeamCurrentFile": false,
	"Comment": "Output of following step goes to <AnalysisDir>/corr",
	"makeBeamBeamFile": true,
	"Comment": "Output of following step goes to <AnalysisDir>/corr",
	"makeGhostsFile": false,
	"Comment": "Output of following step goes to <AnalysisDir>/corr",
	"makeSatellitesFile": false,
	"Comment": "Output of following step goes to <AnalysisDir>/<Luminometer>/graphs", 
	"makeLengthScaleFile": false,
	"Comment": "Output of following step goes to <AnalysisDir>/corr",
	"makeGraphsFile": true,
	"Comment": "Output of following step goes to <AnalysisDir>/corr",
	"makeGraphs2D": false,
	"Comment": "Output of following step goes to <AnalysisDir>/<Luminometer>/results/<Corr>", 
	"runVdmFitter": true,
	"MakePDF": true,
	"MakeLogs": true,
	"makeScanFileConfig":
		{
		"InputCentralPath": "/eos/cms/store/group/comm_luminosity/VdM/scanFill6016_28July2017/central/",
		"InputDIPFile" : "/eos/cms/store/group/comm_luminosity/VdM/scanFill6016_28July2017/beamData/vdm_180513d0-e7f1-45f5-a86d-f23d8ae2f886.csv",
		"ScanNames" : ["X1","Y1","Y2","X2","BIX1","BIY1","BIX2","BIY2","X3","Y3","X5","Y5"],
		"Comment" : "Since X,Y scans are automatically differentiated, a time window can include an X and a Y scan, will still work, timestamp in UTC", 
		"ScanTimeWindows" :[[1501228893, 1501229838],[1501230120, 1501231049],[1501231473, 1501232420],[1501232783, 1501233728],[1501235405, 1501236452],[1501236798, 1501237860],[1501238672, 1501239728],[1501240037, 1501241088],[1501245624,1501246582],[1501246909, 1501247855],[1501269855, 1501270800],[1501270999,1501271946]],
		"Comment" : "A few parameters that are not in our current DIP file, but should be available eventually",
		"Comment" : "betaStar in m, angle in microrad",
		"BetaStar" : 19.17,
		"Angle" : 0.0,
		"Offset" : [0.0,0.0,0.0,0.0,0.0,0.0,0.0,0.0,0.0,0.0,0.147,0.147,0.0,0.0],
		"Comment": "Offset in mm",	
		"ParticleTypeB1" : "proton",
		"ParticleTypeB2" : "proton",
		"Comment": "Beam energies in MeV", 
		"EnergyB1" : 6499,
		"EnergyB2" : 6499,
		"OutputSubDir" : "cond"
		},
	"makeRateFileConfig":
		{	
		"InputPCCFiles": [
		"/eos/cms/store/group/comm_luminosity/PCC/ForLumiComputation/2017/VdMFills/6016/ZeroBias1/crab_CMSSW_9_2_6_ZeroBias1_splitPerBXTrue/170804_183112/0000/minituples/merged/merged.root",
			"/eos/cms/store/group/comm_luminosity/PCC/ForLumiComputation/2017/VdMFills/6016/ZeroBias2/crab_CMSSW_9_2_6_ZeroBias2_splitPerBXTrue/170804_183143/0000/minituples/merged/merged.root",
			"/eos/cms/store/group/comm_luminosity/PCC/ForLumiComputation/2017/VdMFills/6016/ZeroBias3/crab_CMSSW_9_2_6_ZeroBias3_splitPerBXTrue/170804_183203/0000/minituples/merged/merged.root",
			"/eos/cms/store/group/comm_luminosity/PCC/ForLumiComputation/2017/VdMFills/6016/ZeroBias4/crab_CMSSW_9_2_6_ZeroBias4_splitPerBXTrue/170804_183220/0000/minituples/merged/merged.root",
			"/eos/cms/store/group/comm_luminosity/PCC/ForLumiComputation/2017/VdMFills/6016/ZeroBias5/crab_CMSSW_9_2_6_ZeroBias5_splitPerBXTrue/170804_183235/0000/minituples/merged/merged.root",
			"/eos/cms/store/group/comm_luminosity/PCC/ForLumiComputation/2017/VdMFills/6016/ZeroBias6/crab_CMSSW_9_2_6_ZeroBias6_splitPerBXTrue/170803_140851/0000/minituples/merged/merged.root",
			"/eos/cms/store/group/comm_luminosity/PCC/ForLumiComputation/2017/VdMFills/6016/ZeroBias7/crab_CMSSW_9_2_6_ZeroBias7_splitPerBXTrue/170804_183310/0000/minituples/merged/merged.root",
			"/eos/cms/store/group/comm_luminosity/PCC/ForLumiComputation/2017/VdMFills/6016/ZeroBias8/crab_CMSSW_9_2_6_ZeroBias8_splitPerBXTrue/170804_183328/0000/minituples/merged/merged.root"
		],
			"Comment": "BCIDs on which trigger read out PCC values",
			"PCC_BCID": [41,281,872,1783,2063],
			"AnalysisDir": "../Fill6016_Nov222016",
			"Comment": "The following directories are relative to <AnalysisDir>",
			"InputScanFile" : "cond/Scan_6016.pkl",
			"PCCTreeName": "pccminitree",
		"DataType": "PCC",
			"OutputSubDir" : "LuminometerData",
			"addScanInfo": true
		},
	"makeBeamCurrentFileConfig":
		{
		"InputCentralPath": "/eos/cms/store/group/comm_luminosity/VdM/scanFill6016_28July2017/central/",
			"Comment": "Input scan file in <AnalysisDir>/<InputScanFile>",
			"InputScanFile" : "cond/Scan_6016.pkl",
			"OutputSubDir" : "cond",
		"ReadFromTimber" : false,
			"CalibrateFBCTtoDCCT" : false
		},
	"makeBeamBeamFileConfig":
		{
		"Comment": "Input scan info file is <AnalysisDir>/<InputScanFile>",
		"InputScanFile" : "cond/Scan_6016.pkl",
		"Comment": "Input beam currents file is <AnalysisDir>/<InputBeamCurrentFile>",
		"InputBeamCurrentFile" : "cond/BeamCurrents_6016.pkl",
		"InputLuminometerData" : "LuminometerData/Rates_PCC_6016.pkl",
		"Comment": "Input CapSigmas in <AnalysisDir>/<Luminometer>/results",
		"InputCapSigmaFile" : "noCorr/DG_FitResults.pkl",
		"Scanpairs" : [[1,2],[4,3],[5,6],[7,8],[9,10],[11,12]],
		"Comment": "This is relative to <AnalysisDir>",
		"OutputSubDir": "corr"
		},
	"makeGhostsFileConfig":
		{
		"Comment" : "Where to find the correction factors in json format",
		"InputDataDir" : "dataPrep_corr/corrData",
		"Comment": "This is relative to <AnalysisDir>",
		"OutputSubDir": "corr"
		},
	"makeSatellitesFileConfig":
		{
		"Comment" : "Where to find the correction factors in json format",
		"InputDataDir" : "dataPrep_corr/corrData",
		"Comment": "This is relative to <AnalysisDir>",
		"OutputSubDir": "corr"
		},
	"makeLengthScaleFileConfig":
		{
		"Comment": "Length scale scan fill",
		"FillLS": "3563",	
		"Comment" : "Where to find the correction factors in json format",
		"InputDataDir" : "dataPrep_corr/corrData",
		"Comment": "This is relative to <AnalysisDir>",
		"OutputSubDir": "corr"
		},
	"makeGraphsFileConfig":
		{
		"Comment": "Input scan file in <AnalysisDir>/<InputScanFile>",
		"InputScanFile" : "cond/Scan_6016.pkl",
		"Comment": "Input beam currents file in <AnalysisDir>/<InputBeamCurrentFile>",
		"InputBeamCurrentFile" : "cond/BeamCurrents_6016.pkl",
			"Comment": "Input luminometer data in <AnalysisDir>/<InputLuminometerData>",
		"InputLuminometerData" : "LuminometerData/Rates_PCC_6016.pkl",
		"FitNumber" : "1",
		"OutputSubDir" : "graphs",
		"MakePDF": true
		},
	"makeGraphs2DConfig":
		{
		"Comment": "Defines each X/Y pair for which to make 2D graphs", 
		"Scanpairs" : [[1,2],[4,3],[5,6],[7,8],[9,10],[11,12],[13,14]],
		"Comment": "Input/output directory is <AnalysisDir>/<Luminometer>/graphs",
		"InOutSubDir": "graphs"
		},
	"vdmFitterConfig":
		 {
		 "Comment": "Input graphs file in <AnalysisDir>/<Luminometer>/graphs", 
		 "Comment": "If InputGraphsFile parameter empty, the graphs/graphs_Fill_Corr.pkl will be chosen",
		 "InputGraphsFile" : "graphs/graphs_6016_BeamBeam.json",
		 "FitName" : "DG",
		 "Comment": "Use SimCapSigma_PCCAndVtx, for simultaneous fit with vtx. counting",
			 "FitConfigFile" : "fits/DG_Config.json",
		 "Comment": "Use SimCapSigma_PCCAndVtx_Config_LargerConstRange.json, for simultaneous fit with vtx. counting",
		 "PlotsTempPath": [["./plotstmp/1/"], ["./plotstmp/2/"]],
		 "MinuitFile" : "DG_BeamBeam_Minuit"
		 }
	}
	